Extracting Data Over Vector Features • prismaread
…
prismaread provides a very efficient function based on package exactextractr(https://github.com/isciences/exactextractr) for extracting and summarizing data from the converted hyperspectral cubes over features of vector spatial files. The function allows to compute several statistics, as well as extracting all pixel values, and to save them to RData, CSV or EXCEL files (See documentation of the prisma_extract_spectra() function for info on available arguments).

For example, starting from a VNIR Cube obtained with convert_prisma and a vector polygon file:

  library(prismaread)
  library(ggplot2)
  library(tmap)
  in_file <- "D:/prismaread/L2D/testL2D_HCO_VNIR.envi"
  in_vect <- "D:/prismaread/test/testpoints_l2d_polys.gpkg"

  # extract base statistics, in "long" format
  test <- prisma_extract_spectra(in_file, in_vect, id_field = "ID")
  test
#> # A tibble: 396 x 4
#>      wvl ID       mean  stdev
#>    <dbl> <chr>   <dbl>  <dbl>
#>  1  402. poly_1 0      0     
#>  2  411. poly_1 0.0538 0.0236
#>  3  419. poly_1 0.0636 0.0267
#>  4  427. poly_1 0.0724 0.0282
#>  5  434. poly_1 0.0786 0.0294
#>  6  441. poly_1 0.0797 0.0296
#>  7  449. poly_1 0.0880 0.0311
#>  8  456. poly_1 0.0898 0.0314
#>  9  464. poly_1 0.0937 0.0322
#> 10  471. poly_1 0.0995 0.0332
#> # ... with 386 more rows
…
  # extract base statistics ands save results as excel file, in "wide" format
  test <- prisma_extract_spectra(in_file, in_vect, out_file = "D:/Temp/test1.xlsx",
                                 stats_format = "wide", id_field = "id")
  test
#> # A tibble: 66 x 13
#>      wvl mean_X1 stdev_X1 mean_X2 stdev_X2 mean_X3 stdev_X3 mean_X4 stdev_X4
#>    <dbl>   <dbl>    <dbl>   <dbl>    <dbl>   <dbl>    <dbl>   <dbl>    <dbl>
#>  1  402.  0        0       0.0316  0.00469 1.93e-3  0.00254 0.0114    0.0144
#>  2  411.  0.0538   0.0236  0.0257  0.00479 4.20e-4  0.00117 0.00866   0.0124
#>  3  419.  0.0636   0.0267  0.0346  0.00494 1.77e-3  0.00278 0.0130    0.0161
#>  4  427.  0.0724   0.0282  0.0436  0.00531 5.39e-3  0.00413 0.0170    0.0191
#>  5  434.  0.0786   0.0294  0.0500  0.00569 8.58e-3  0.00507 0.0208    0.0214
#>  6  441.  0.0797   0.0296  0.0527  0.00610 9.65e-3  0.00544 0.0232    0.0229
#>  7  449.  0.0880   0.0311  0.0615  0.00640 1.47e-2  0.00615 0.0305    0.0248
#>  8  456.  0.0898   0.0314  0.0630  0.00648 1.48e-2  0.00619 0.0311    0.0251
#>  9  464.  0.0937   0.0322  0.0669  0.00681 1.72e-2  0.00629 0.0336    0.0266
#> 10  471.  0.0995   0.0332  0.0721  0.00712 2.02e-2  0.00651 0.0381    0.0266
#> # ... with 56 more rows, and 4 more variables: mean_X5 <dbl>, stdev_X5 <dbl>,
#> #   mean_X6 <dbl>, stdev_X6 <dbl>

  # extract custom statistics
  test <- prisma_extract_spectra(in_file, in_vect,
                                 selstats = c("mean", "coeffvar", "stdev", "min", "max"),
                                 id_field = "id")

  test
#> # A tibble: 396 x 7
#>      wvl ID      mean coeffvar  stdev    min   max
#>    <dbl> <chr>  <dbl>    <dbl>  <dbl>  <dbl> <dbl>
#>  1  402. X1    0       NaN     0      0      0    
#>  2  411. X1    0.0538    0.439 0.0236 0.0190 0.164
#>  3  419. X1    0.0636    0.419 0.0267 0.0263 0.192
#>  4  427. X1    0.0724    0.390 0.0282 0.0336 0.211
#>  5  434. X1    0.0786    0.374 0.0294 0.0383 0.223
#>  6  441. X1    0.0797    0.371 0.0296 0.0383 0.225
#>  7  449. X1    0.0880    0.353 0.0311 0.0443 0.242
#>  8  456. X1    0.0898    0.350 0.0314 0.0455 0.244
#>  9  464. X1    0.0937    0.343 0.0322 0.0484 0.251
#> 10  471. X1    0.0995    0.333 0.0332 0.0526 0.262
#> # ... with 386 more rows
…
  # extract custom statistics and quantiles
  test <- prisma_extract_spectra(in_file, in_vect, quantiles = TRUE,
                                 selstats = c("mean", "stdev"),
                                 id_field = "id")
  test
#> # A tibble: 396 x 9
#>      wvl ID      mean  stdev quant_5 quant_25 quant_50 quant_75 quant_95
#>    <dbl> <chr>  <dbl>  <dbl>   <dbl>    <dbl>    <dbl>    <dbl>    <dbl>
#>  1  402. X1    0      0           NA       NA       NA       NA       NA
#>  2  411. X1    0.0538 0.0236      NA       NA       NA       NA       NA
#>  3  419. X1    0.0636 0.0267      NA       NA       NA       NA       NA
#>  4  427. X1    0.0724 0.0282      NA       NA       NA       NA       NA
#>  5  434. X1    0.0786 0.0294      NA       NA       NA       NA       NA
#>  6  441. X1    0.0797 0.0296      NA       NA       NA       NA       NA
#>  7  449. X1    0.0880 0.0311      NA       NA       NA       NA       NA
#>  8  456. X1    0.0898 0.0314      NA       NA       NA       NA       NA
#>  9  464. X1    0.0937 0.0322      NA       NA       NA       NA       NA
#> 10  471. X1    0.0995 0.0332      NA       NA       NA       NA       NA
#> # ... with 386 more rows

  # extract also all pixels
  test <- prisma_extract_spectra(in_file, in_vect, allpix = TRUE,
                                 selstats = c("mean", "stdev"),
                                 id_field = "id")

  # stats are saved in the "stats" slot of the output
  test$stats
#> # A tibble: 396 x 4
#>      wvl ID      mean  stdev
#>    <dbl> <chr>  <dbl>  <dbl>
#>  1  402. X1    0      0     
#>  2  411. X1    0.0538 0.0236
#>  3  419. X1    0.0636 0.0267
#>  4  427. X1    0.0724 0.0282
#>  5  434. X1    0.0786 0.0294
#>  6  441. X1    0.0797 0.0296
#>  7  449. X1    0.0880 0.0311
#>  8  456. X1    0.0898 0.0314
#>  9  464. X1    0.0937 0.0322
#> 10  471. X1    0.0995 0.0332
#> # ... with 386 more rows

  # pixel values are saved in the "allpix" slot of the output
  test$allpix
#> # A tibble: 68,508 x 4
#>    ID      wvl pixel    value
#>    <chr> <dbl> <chr>    <dbl>
#>  1 id_1   402. pix_001 0     
#>  2 id_1   411. pix_001 0.0731
#>  3 id_1   419. pix_001 0.0823
#>  4 id_1   427. pix_001 0.0900
#>  5 id_1   434. pix_001 0.0960
#>  6 id_1   441. pix_001 0.0977
#>  7 id_1   449. pix_001 0.106 
#>  8 id_1   456. pix_001 0.108 
#>  9 id_1   464. pix_001 0.113 
#> 10 id_1   471. pix_001 0.120 
#> # ... with 68,498 more rows
…
